Mon Aug  1 16:35:02 CEST 2016
Preloading tcmalloc_minimal.so
Py:Athena            INFO including file "AthenaCommon/Preparation.py"
Py:Athena            INFO using release [WorkDir-22.0.0] [x86_64-slc6-gcc49-dbg] [private/private] -- built on [2016-08-01 16:23]
Py:Athena            INFO including file "AthenaCommon/Atlas.UnixStandardJob.py"
Warning in <TInterpreter::ReadRootmapFile>: class  UCharDbArray found in libStorageSvcDict.so  is already in libRootCnvDict.so 
Py:Athena            INFO executing ROOT6Setup
Py:Athena            INFO including file "AthenaCommon/Execution.py"
Py:Athena            INFO including file "EventAthenaPool/EventTPCnv_18.0.0_test.py"
Py:Athena            INFO including file "EventAthenaPool/EventAthenaPoolTestDump.py"
[?1034hPy:Athena            INFO including file "AthenaPoolUtilities/TPCnvTest.py"
Py:ConfigurableDb    INFO Read module info for 419 configurables from 2 genConfDb files
Py:ConfigurableDb    INFO No duplicates have been found: that's good !
Py:Athena            INFO including file "AthenaCommon/runbatch.py"
ApplicationMgr       INFO Updating Gaudi::PluginService::SetDebug(level) to level= 'PluginDebugLevel':0
ApplicationMgr    SUCCESS 
====================================================================================================================================
                                                   Welcome to ApplicationMgr (GaudiCoreSvc v4r1)
                                          running on lxplus058.cern.ch on Mon Aug  1 16:35:16 2016
====================================================================================================================================
ApplicationMgr       INFO Successfully loaded modules : AthenaServices
ApplicationMgr       INFO Application Manager Configured successfully
ApplicationMgr       INFO Updating Gaudi::PluginService::SetDebug(level) to level= 'PluginDebugLevel':0
StatusCodeSvc        INFO initialize
AthDictLoaderSvc     INFO in initialize...
AthDictLoaderSvc     INFO acquired Dso-registry
ClassIDSvc           INFO Initializing ClassIDSvc - package version CLIDComps-00-06-21
ClassIDSvc           INFO  getRegistryEntries: read 2244 CLIDRegistry entries for module ALL
ChronoStatSvc        INFO  Number of skipped events for MemStat-1
CoreDumpSvc          INFO install f-a-t-a-l handler... (flag = -1)
CoreDumpSvc          INFO Handling signals: 11(Segmentation fault) 7(Bus error) 4(Illegal instruction) 8(Floating point exception) 
AthenaEventLoopMgr   INFO Initializing AthenaEventLoopMgr - package version AthenaServices-01-60-25
AthMasterSeq         INFO Member list: AthSequencer/AthAlgSeq, AthSequencer/AthOutSeq, AthSequencer/AthRegSeq
AthAlgSeq            INFO Member list: PyAthena::Alg/dumper
PyComponentMgr       INFO Initializing PyComponentMgr...
dumper               INFO Initializing dumper...
MetaDataSvc          INFO Initializing MetaDataSvc - package version AthenaServices-01-60-25
AthenaPoolCnvSvc     INFO Initializing AthenaPoolCnvSvc - package version AthenaPoolCnvSvc-00-28-25
PoolSvc              INFO Initializing PoolSvc - package version PoolSvc-00-25-03
PoolSvc              INFO io_register[PoolSvc](xmlcatalog_file:PoolFileCatalog.xml) [ok]
PoolSvc              INFO Set connectionsvc retry/timeout/IDLE timeout to  'ConnectionRetrialPeriod':300/ 'ConnectionRetrialTimeOut':3600/ 'ConnectionTimeOut':5 seconds with connection cleanup disabled
PoolSvc              INFO Frontier compression level set to 5
DBReplicaSvc         INFO Frontier server at (serverurl=http://atlasfrontier-ai.cern.ch:8000/atlr)(serverurl=http://aiatlas036.cern.ch:8000/atlr)(serverurl=http://aiatlas034.cern.ch:8000/atlr)(serverurl=http://ccfrontier.in2p3.fr:23128/ccin2p3-AtlasFrontier)(serverurl=http://ccsqfatlasli02.in2p3.fr:23128/ccin2p3-AtlasFrontier)(serverurl=http://ccsqfatlasli01.in2p3.fr:23128/ccin2p3-AtlasFrontier)(proxyurl=http://ca-proxy.cern.ch:3128)(proxyurl=http://ca18.cern.ch:3128)(proxyurl=http://ca17.cern.ch:3128)(proxyurl=http://atlast0fsquid.cern.ch:3128)(proxyurl=http://atlassquid1.cern.ch:3128)(proxyurl=http://atlassquid2.cern.ch:3128)(proxyurl=http://atlassquid4.cern.ch:3128) will be considered for COOL data
DBReplicaSvc         INFO Read replica configuration from /afs/cern.ch/atlas/software/builds/nightlies/devval/AtlasCore/rel_1/InstallArea/x86_64-slc6-gcc49-dbg/share/dbreplica.config
DBReplicaSvc         INFO Total of 10 servers found for host lxplus058.cern.ch [ATLF ATLAS_COOLPROD atlas_dd ATLAS_CONFIG INT8R INTR ATONR_COOL ATONR_CONF DEVDB11 ATLF ]
PoolSvc              INFO Successfully setup replica sorting algorithm
PoolSvc              INFO Re-initializing PoolSvc
PoolSvc              INFO POOL WriteCatalog is xmlcatalog_file:PoolFileCatalog.xml
XMLFileCatalog Info Connecting to the catalog
PoolXMLFileCatalog Info Xerces-c initialization Number 0
PoolXMLFileCatalog Info File PoolFileCatalog.xml does not exist, a new one is created
EventSelector        INFO Initializing EventSelector - package version EventSelectorAthenaPool-00-19-16
EventSelector        INFO reinitialization...
PoolSvc              INFO File is not in Catalog! Attempt to open it anyway.
RootCollection Info Opening Collection File /afs/cern.ch/atlas/maxidisk/d33/referencefiles/aod/AOD-18.0.0/AOD-18.0.0-full.pool.root in mode: READ
TClass::Init:0: RuntimeWarning: no dictionary for class HepMcParticleLink_p1 is available
TClass::Init:0: RuntimeWarning: no dictionary for class CaloCalibrationHitContainer_p3 is available
TClass::Init:0: RuntimeWarning: no dictionary for class TrackRecordCollection_p2 is available
TClass::Init:0: RuntimeWarning: no dictionary for class TrackRecord_p1 is available
TClass::Init:0: RuntimeWarning: no dictionary for class CaloCompactCellContainer is available
TClass::Init:0: RuntimeWarning: no dictionary for class CaloTowerSeg_p1 is available
TClass::Init:0: RuntimeWarning: no dictionary for class CaloClusterContainer_p7 is available
TClass::Init:0: RuntimeWarning: no dictionary for class CaloClusterMomentContainer_p2 is available
TClass::Init:0: RuntimeWarning: no dictionary for class TileCellVec is available
TClass::Init:0: RuntimeWarning: no dictionary for class TileMuContainer_p1 is available
TClass::Init:0: RuntimeWarning: no dictionary for class ElectronContainer_p5 is available
TClass::Init:0: RuntimeWarning: no dictionary for class egammaContainer_p5 is available
TClass::Init:0: RuntimeWarning: no dictionary for class PhotonContainer_p5 is available
TClass::Init:0: RuntimeWarning: no dictionary for class eflowObjectContainer_p5 is available
TClass::Init:0: RuntimeWarning: no dictionary for class McEventCollection_p5 is available
TClass::Init:0: RuntimeWarning: no dictionary for class TrigDec::TrigDecision_p5 is available
TClass::Init:0: RuntimeWarning: no dictionary for class LVL1CTP::Lvl1Result_p2 is available
TClass::Init:0: RuntimeWarning: no dictionary for class LVL1_ROI_p1 is available
TClass::Init:0: RuntimeWarning: no dictionary for class Trk::VxContainer_tlp2 is available
TClass::Init:0: RuntimeWarning: no dictionary for class TauJetContainer_p5 is available
TClass::Init:0: RuntimeWarning: no dictionary for class JetKeyDescriptor_p1 is available
TClass::Init:0: RuntimeWarning: no dictionary for class MissingEtCalo_p3 is available
TClass::Init:0: RuntimeWarning: no dictionary for class MissingET_p3 is available
TClass::Init:0: RuntimeWarning: no dictionary for class MissingEtTruth_p3 is available
TClass::Init:0: RuntimeWarning: no dictionary for class TruthParticleContainer_p6 is available
TClass::Init:0: RuntimeWarning: no dictionary for class TrigInDetTrackTruthMap_tlp2 is available
TClass::Init:0: RuntimeWarning: no dictionary for class TrackParticleAssocs_p1 is available
TClass::Init:0: RuntimeWarning: no dictionary for class TPCnv::MuonMeasurements_tlp2 is available
TClass::Init:0: RuntimeWarning: no dictionary for class Trk::SegmentCollection_tlp2 is available
TClass::Init:0: RuntimeWarning: no dictionary for class HLT::HLTResult_p1 is available
TClass::Init:0: RuntimeWarning: no dictionary for class LArNoisyROSummary_p1 is available
TClass::Init:0: RuntimeWarning: no dictionary for class InDet::Track_tlp2 is available
TClass::Init:0: RuntimeWarning: no dictionary for class Trk::TrackCollection_tlp4 is available
TClass::Init:0: RuntimeWarning: no dictionary for class JetMomentMap_p6 is available
TClass::Init:0: RuntimeWarning: no dictionary for class CTP_Decision_p2 is available
TClass::Init:0: RuntimeWarning: no dictionary for class TrigElectronContainer_p3 is available
TClass::Init:0: RuntimeWarning: no dictionary for class RawInfoSummaryForTag_p1 is available
TClass::Init:0: RuntimeWarning: no dictionary for class MissingETComposition_p2 is available
TClass::Init:0: RuntimeWarning: no dictionary for class Navigable_p2<unsigned int,Weight_p1> is available
TClass::Init:0: RuntimeWarning: no dictionary for class TauDetailsContainer_tlp4 is available
TClass::Init:0: RuntimeWarning: no dictionary for class MuonContainer_p6 is available
TClass::Init:0: RuntimeWarning: no dictionary for class CombinedMuonFeatureContainer_p4 is available
TClass::Init:0: RuntimeWarning: no dictionary for class TrigTauTracksInfoCollection_p2 is available
TClass::Init:0: RuntimeWarning: no dictionary for class TrigVertexCountsCollection_tlp1 is available
TClass::Init:0: RuntimeWarning: no dictionary for class InDetLowBetaContainer_tlp1 is available
TClass::Init:0: RuntimeWarning: no dictionary for class TrigRoiDescriptorCollection_p2 is available
TClass::Init:0: RuntimeWarning: no dictionary for class TrigTrackCountsCollection_tlp1 is available
TClass::Init:0: RuntimeWarning: no dictionary for class TrigSpacePointCountsCollection_p4 is available
TClass::Init:0: RuntimeWarning: no dictionary for class TrigEFBjetContainer_tlp2 is available
TClass::Init:0: RuntimeWarning: no dictionary for class TrigTauClusterDetailsContainer_p2 is available
TClass::Init:0: RuntimeWarning: no dictionary for class Analysis::JetTagInfo_tlp3 is available
TClass::Init:0: RuntimeWarning: no dictionary for class JetCollection_tlp6 is available
TClass::Init:0: RuntimeWarning: no dictionary for class TrigMuonEFInfoContainer_tlp2 is available
TClass::Init:0: RuntimeWarning: no dictionary for class TrigMuonEFIsolationContainer_p2 is available
TClass::Init:0: RuntimeWarning: no dictionary for class TrigT2JetContainer_p3 is available
TClass::Init:0: RuntimeWarning: no dictionary for class egDetailContainer_p2 is available
TClass::Init:0: RuntimeWarning: no dictionary for class TrigT2MbtsBitsContainer_p3 is available
TClass::Init:0: RuntimeWarning: no dictionary for class IsoMuonFeatureContainer_p3 is available
TClass::Init:0: RuntimeWarning: no dictionary for class MuonFeatureContainer_p3 is available
TClass::Init:0: RuntimeWarning: no dictionary for class TrigPassFlagsCollection_p1 is available
TClass::Init:0: RuntimeWarning: no dictionary for class TrigEMClusterContainer_p4 is available
TClass::Init:0: RuntimeWarning: no dictionary for class MuonFeatureDetailsContainer_p2 is available
TClass::Init:0: RuntimeWarning: no dictionary for class TrigRNNOutputContainer_p2 is available
TClass::Init:0: RuntimeWarning: no dictionary for class TrigTauClusterContainer_p5 is available
TClass::Init:0: RuntimeWarning: no dictionary for class TrigTrtHitCountsCollection_p2 is available
TClass::Init:0: RuntimeWarning: no dictionary for class ElectronMuonTopoInfoContainer_p1 is available
TClass::Init:0: RuntimeWarning: no dictionary for class TrigMissingETContainer_p3 is available
TClass::Init:0: RuntimeWarning: no dictionary for class TrigL2BjetContainer_p3 is available
TClass::Init:0: RuntimeWarning: no dictionary for class CaloShowerContainer_p2 is available
TClass::Init:0: RuntimeWarning: no dictionary for class CaloClusterMomentContainer_p1 is available
TClass::Init:0: RuntimeWarning: no dictionary for class CaloSamplingDataContainer_p1 is available
TClass::Init:0: RuntimeWarning: no dictionary for class TrigMuonClusterFeatureContainer_tlp1 is available
TClass::Init:0: RuntimeWarning: no dictionary for class Trk::DetailedTrackTruthCollection_p2 is available
TClass::Init:0: RuntimeWarning: no dictionary for class TileTrackMuFeatureContainer_p3 is available
TClass::Init:0: RuntimeWarning: no dictionary for class TrigPhotonContainer_p3 is available
TClass::Init:0: RuntimeWarning: no dictionary for class TileMuFeatureContainer_p2 is available
TClass::Init:0: RuntimeWarning: no dictionary for class TrigVertexCollection_tlp2 is available
TClass::Init:0: RuntimeWarning: no dictionary for class TrigInDetTrackCollection_tlp4 is available
TClass::Init:0: RuntimeWarning: no dictionary for class TrigL2BphysContainer_tlp2 is available
TClass::Init:0: RuntimeWarning: no dictionary for class TrigCaloClusterContainer_p3 is available
TClass::Init:0: RuntimeWarning: no dictionary for class TrigEFBphysContainer_tlp2 is available
TClass::Init:0: RuntimeWarning: no dictionary for class TrigPassBitsCollection_p1 is available
TClass::Init:0: RuntimeWarning: no dictionary for class SkimDecisionCollection_p1 is available
TClass::Init:0: RuntimeWarning: no dictionary for class RingerRingsContainer_p2 is available
TClass::Init:0: RuntimeWarning: no dictionary for class Rec::TrackParticleTruthCollection_p1 is available
TClass::Init:0: RuntimeWarning: no dictionary for class CosmicMuonCollection_tlp1 is available
TClass::Init:0: RuntimeWarning: no dictionary for class CaloCellLinkContainer_p2 is available
TClass::Init:0: RuntimeWarning: no dictionary for class TrigTauContainer_p3 is available
TClass::Init:0: RuntimeWarning: no dictionary for class MuonSpShowerContainer_p1 is available
TClass::Init:0: RuntimeWarning: no dictionary for class MdtTrackSegmentCollection_p2 is available
TClass::Init:0: RuntimeWarning: no dictionary for class Rec::TrackParticleContainer_tlp3 is available
TClass::Init:0: RuntimeWarning: no dictionary for class MuonCaloEnergyContainer_p1 is available
TClass::Init:0: RuntimeWarning: no dictionary for class Analysis::BaseTagInfo_p1 is available
TClass::Init:0: RuntimeWarning: no dictionary for class Analysis::IPInfoBase_p1 is available
TClass::Init:0: RuntimeWarning: no dictionary for class Analysis::IPInfoPlus_p1 is available
TClass::Init:0: RuntimeWarning: no dictionary for class Analysis::IPTrackInfo_p1 is available
TClass::Init:0: RuntimeWarning: no dictionary for class Analysis::TruthInfo_p1 is available
TClass::Init:0: RuntimeWarning: no dictionary for class Analysis::SoftLeptonTruthInfo_p1 is available
TClass::Init:0: RuntimeWarning: no dictionary for class Analysis::SLTrueInfo_p1 is available
TClass::Init:0: RuntimeWarning: no dictionary for class Analysis::AtlfInfo_p1 is available
TClass::Init:0: RuntimeWarning: no dictionary for class Analysis::SecVtxInfo_p1 is available
TClass::Init:0: RuntimeWarning: no dictionary for class Analysis::JetProbInfoBase_p1 is available
TClass::Init:0: RuntimeWarning: no dictionary for class Analysis::JetFitterTagInfo_p1 is available
TClass::Init:0: RuntimeWarning: no dictionary for class Analysis::LifetimeInfo_p1 is available
TClass::Init:0: RuntimeWarning: no dictionary for class Analysis::SoftElectronInfo_p1 is available
TClass::Init:0: RuntimeWarning: no dictionary for class Analysis::SETrackInfo_p1 is available
TClass::Init:0: RuntimeWarning: no dictionary for class Analysis::SoftMuonInfo_p1 is available
TClass::Init:0: RuntimeWarning: no dictionary for class Analysis::SMTrackInfo_p1 is available
TClass::Init:0: RuntimeWarning: no dictionary for class Analysis::SVInfoPlus_p1 is available
TClass::Init:0: RuntimeWarning: no dictionary for class Analysis::MultiSVInfoPlus_p1 is available
TClass::Init:0: RuntimeWarning: no dictionary for class Analysis::MSVVtxInfo_p2 is available
TClass::Init:0: RuntimeWarning: no dictionary for class Analysis::GbbNNTagInfo_p1 is available
TClass::Init:0: RuntimeWarning: no dictionary for class Analysis::SVInfoBase_p1 is available
TClass::Init:0: RuntimeWarning: no dictionary for class Analysis::SvxSummary_p1 is available
TClass::Init:0: RuntimeWarning: no dictionary for class Analysis::TrackCountingInfo_p1 is available
TClass::Init:0: RuntimeWarning: no dictionary for class JetAssociationBase_p1 is available
TClass::Init:0: RuntimeWarning: no dictionary for class Analysis::NavAssociationCommon_p1 is available
TClass::Init:0: RuntimeWarning: no dictionary for class Analysis::ISvxAssociation_p1 is available
TClass::Init:0: RuntimeWarning: no dictionary for class Trk::RecVertex_p1 is available
TClass::Init:0: RuntimeWarning: no dictionary for class Trk::Vertex_p1 is available
TClass::Init:0: RuntimeWarning: no dictionary for class Trk::HepSymMatrix_p1 is available
TClass::Init:0: RuntimeWarning: no dictionary for class Trk::FitQuality_p1 is available
TClass::Init:0: RuntimeWarning: no dictionary for class InDet::PixelClusterOnTrack_p2 is available
TClass::Init:0: RuntimeWarning: no dictionary for class InDet::SCT_ClusterOnTrack_p2 is available
TClass::Init:0: RuntimeWarning: no dictionary for class InDet::TRT_DriftCircleOnTrack_p2 is available
TClass::Init:0: RuntimeWarning: no dictionary for class CaloEnergy_p2 is available
TClass::Init:0: RuntimeWarning: no dictionary for class Trk::EnergyLoss_p1 is available
TClass::Init:0: RuntimeWarning: no dictionary for class DepositInCalo_p2 is available
TClass::Init:0: RuntimeWarning: no dictionary for class Muon::CscClusterOnTrack_p2 is available
TClass::Init:0: RuntimeWarning: no dictionary for class Muon::RpcClusterOnTrack_p3 is available
TClass::Init:0: RuntimeWarning: no dictionary for class Muon::TgcClusterOnTrack_p2 is available
TClass::Init:0: RuntimeWarning: no dictionary for class Muon::MdtDriftCircleOnTrack_p2 is available
TClass::Init:0: RuntimeWarning: no dictionary for class Muon::CompetingMuonClustersOnTrack_p1 is available
TClass::Init:0: RuntimeWarning: no dictionary for class Muon::MuonSegment_p1 is available
TClass::Init:0: RuntimeWarning: no dictionary for class Trk::LocalDirection_p1 is available
TClass::Init:0: RuntimeWarning: no dictionary for class Muon::MuonSegmentQuality_p1 is available
TClass::Init:0: RuntimeWarning: no dictionary for class CaloClusterContainer_p7::CaloCluster_p is available
TClass::Init:0: RuntimeWarning: no dictionary for class P4EEtaPhiMFloat_p2 is available
TClass::Init:0: RuntimeWarning: no dictionary for class TileMu_p1 is available
TClass::Init:0: RuntimeWarning: no dictionary for class Electron_p5 is available
TClass::Init:0: RuntimeWarning: no dictionary for class egamma_p5 is available
TClass::Init:0: RuntimeWarning: no dictionary for class ParticleBase_p2 is available
TClass::Init:0: RuntimeWarning: no dictionary for class Photon_p5 is available
TClass::Init:0: RuntimeWarning: no dictionary for class eflowObject_p5 is available
TClass::Init:0: RuntimeWarning: no dictionary for class GenEvent_p5 is available
TClass::Init:0: RuntimeWarning: no dictionary for class GenVertex_p5 is available
TClass::Init:0: RuntimeWarning: no dictionary for class GenParticle_p5 is available
TClass::Init:0: RuntimeWarning: no dictionary for class Muon_ROI_p1 is available
TClass::Init:0: RuntimeWarning: no dictionary for class Jet_ROI_p1 is available
TClass::Init:0: RuntimeWarning: no dictionary for class JetET_ROI_p1 is available
TClass::Init:0: RuntimeWarning: no dictionary for class EmTau_ROI_p1 is available
TClass::Init:0: RuntimeWarning: no dictionary for class EnergySum_ROI_p1 is available
TClass::Init:0: RuntimeWarning: no dictionary for class Trk::VxContainer_p1 is available
TClass::Init:0: RuntimeWarning: no dictionary for class Trk::VxCandidate_p1 is available
TClass::Init:0: RuntimeWarning: no dictionary for class Trk::ExtendedVxCandidate_p1 is available
TClass::Init:0: RuntimeWarning: no dictionary for class Trk::VxTrackAtVertex_p2 is available
TClass::Init:0: RuntimeWarning: no dictionary for class Trk::RecVertex_p2 is available
TClass::Init:0: RuntimeWarning: no dictionary for class Trk::TrackParameters_p1 is available
TClass::Init:0: RuntimeWarning: no dictionary for class Trk::Perigee_p2 is available
TClass::Init:0: RuntimeWarning: no dictionary for class Trk::MeasuredPerigee_p1 is available
TClass::Init:0: RuntimeWarning: no dictionary for class Trk::Surface_p1 is available
TClass::Init:0: RuntimeWarning: no dictionary for class TauJet_p5 is available
TClass::Init:0: RuntimeWarning: no dictionary for class HepLorentzVector_p1 is available
TClass::Init:0: RuntimeWarning: no dictionary for class TrigInDetTrackTruthMap_p1 is available
TClass::Init:0: RuntimeWarning: no dictionary for class TrigInDetTrackTruth_p1 is available
TClass::Init:0: RuntimeWarning: no dictionary for class TrigIDHitStats_p1 is available
TClass::Init:0: RuntimeWarning: no dictionary for class Trk::SegmentCollection_p1 is available
TClass::Init:0: RuntimeWarning: no dictionary for class Trk::Segment_p1 is available
TClass::Init:0: RuntimeWarning: no dictionary for class Trk::BoundSurface_p1 is available
TClass::Init:0: RuntimeWarning: no dictionary for class Trk::CylinderBounds_p1 is available
TClass::Init:0: RuntimeWarning: no dictionary for class Trk::DiscBounds_p1 is available
TClass::Init:0: RuntimeWarning: no dictionary for class Trk::RectangleBounds_p1 is available
TClass::Init:0: RuntimeWarning: no dictionary for class Trk::TrapezoidBounds_p1 is available
TClass::Init:0: RuntimeWarning: no dictionary for class Trk::RotatedTrapezoidBounds_p1 is available
TClass::Init:0: RuntimeWarning: no dictionary for class Trk::LocalParameters_p1 is available
TClass::Init:0: RuntimeWarning: no dictionary for class Trk::PseudoMeasurementOnTrack_p1 is available
TClass::Init:0: RuntimeWarning: no dictionary for class Trk::CompetingRIOsOnTrack_p1 is available
TClass::Init:0: RuntimeWarning: no dictionary for class Trk::DetElementSurface_p1 is available
TClass::Init:0: RuntimeWarning: no dictionary for class Trk::TrackCollection_p1 is available
TClass::Init:0: RuntimeWarning: no dictionary for class Trk::Track_p2 is available
TClass::Init:0: RuntimeWarning: no dictionary for class Trk::TrackStateOnSurface_p2 is available
TClass::Init:0: RuntimeWarning: no dictionary for class Trk::AtaSurface_p1 is available
TClass::Init:0: RuntimeWarning: no dictionary for class Trk::MeasuredAtaSurface_p1 is available
TClass::Init:0: RuntimeWarning: no dictionary for class Trk::Perigee_p1 is available
TClass::Init:0: RuntimeWarning: no dictionary for class Trk::MaterialEffectsBase_p1 is available
TClass::Init:0: RuntimeWarning: no dictionary for class Trk::MaterialEffectsOnTrack_p2 is available
TClass::Init:0: RuntimeWarning: no dictionary for class Trk::TrackInfo_p1 is available
TClass::Init:0: RuntimeWarning: no dictionary for class TrigElectron_p3 is available
TClass::Init:0: RuntimeWarning: no dictionary for class P4PtEtaPhiM_p1 is available
TClass::Init:0: RuntimeWarning: no dictionary for class Weight_p1 is available
TClass::Init:0: RuntimeWarning: no dictionary for class TauDetailsContainer_p1 is available
TClass::Init:0: RuntimeWarning: no dictionary for class TauCommonDetails_p2 is available
TClass::Init:0: RuntimeWarning: no dictionary for class TauPi0Details_p1 is available
TClass::Init:0: RuntimeWarning: no dictionary for class TauPi0Candidate_p1 is available
TClass::Init:0: RuntimeWarning: no dictionary for class TauPi0Cluster_p1 is available
TClass::Init:0: RuntimeWarning: no dictionary for class Muon_p6 is available
TClass::Init:0: RuntimeWarning: no dictionary for class P4IPtCotThPhiM_p1 is available
TClass::Init:0: RuntimeWarning: no dictionary for class CombinedMuonFeature_p4 is available
TClass::Init:0: RuntimeWarning: no dictionary for class TrigTauTracksInfo_p2 is available
TClass::Init:0: RuntimeWarning: no dictionary for class TrigVertexCountsCollection_p1 is available
TClass::Init:0: RuntimeWarning: no dictionary for class InDetLowBetaContainer_p1 is available
TClass::Init:0: RuntimeWarning: no dictionary for class InDetLowBetaCandidate_p1 is available
TClass::Init:0: RuntimeWarning: no dictionary for class TrigRoiDescriptor_p2 is available
TClass::Init:0: RuntimeWarning: no dictionary for class TrigTrackCountsCollection_p1 is available
TClass::Init:0: RuntimeWarning: no dictionary for class TrigSpacePointCounts_p4 is available
TClass::Init:0: RuntimeWarning: no dictionary for class TrigHisto2D_p1 is available
TClass::Init:0: RuntimeWarning: no dictionary for class TrigEFBjetContainer_p2 is available
TClass::Init:0: RuntimeWarning: no dictionary for class TrigEFBjet_p2 is available
TClass::Init:0: RuntimeWarning: no dictionary for class TrigTauClusterDetails_p2 is available
TClass::Init:0: RuntimeWarning: no dictionary for class JetCollection_p6 is available
TClass::Init:0: RuntimeWarning: no dictionary for class Jet_p6 is available
TClass::Init:0: RuntimeWarning: no dictionary for class TrigMuonEFInfoContainer_p2 is available
TClass::Init:0: RuntimeWarning: no dictionary for class TrigMuonEFInfo_p5 is available
TClass::Init:0: RuntimeWarning: no dictionary for class TrigMuonEFTrack_p6 is available
TClass::Init:0: RuntimeWarning: no dictionary for class TrigMuonEFCbTrack_p7 is available
TClass::Init:0: RuntimeWarning: no dictionary for class TrigMuonEFInfoTrackContainer_p2 is available
TClass::Init:0: RuntimeWarning: no dictionary for class TrigMuonEFInfoTrack_p1 is available
TClass::Init:0: RuntimeWarning: no dictionary for class TrigMuonEFIsolation_p2 is available
TClass::Init:0: RuntimeWarning: no dictionary for class TrigT2Jet_p3 is available
TClass::Init:0: RuntimeWarning: no dictionary for class egDetail_p2 is available
TClass::Init:0: RuntimeWarning: no dictionary for class TrigT2MbtsBits_p3 is available
TClass::Init:0: RuntimeWarning: no dictionary for class IsoMuonFeature_p3 is available
TClass::Init:0: RuntimeWarning: no dictionary for class MuonFeature_p3 is available
TClass::Init:0: RuntimeWarning: no dictionary for class TrigPassFlags_p1 is available
TClass::Init:0: RuntimeWarning: no dictionary for class TrigEMCluster_p4 is available
TClass::Init:0: RuntimeWarning: no dictionary for class TrigCaloCluster_p2 is available
TClass::Init:0: RuntimeWarning: no dictionary for class MuonFeatureDetails_p2 is available
TClass::Init:0: RuntimeWarning: no dictionary for class padhit is available
TClass::Init:0: RuntimeWarning: no dictionary for class tgchit is available
TClass::Init:0: RuntimeWarning: no dictionary for class mdthit is available
TClass::Init:0: RuntimeWarning: no dictionary for class TrigRNNOutput_p2 is available
TClass::Init:0: RuntimeWarning: no dictionary for class TrigTauCluster_p5 is available
TClass::Init:0: RuntimeWarning: no dictionary for class ElectronMuonTopoInfo_p1 is available
TClass::Init:0: RuntimeWarning: no dictionary for class TrigMissingET_p3 is available
TClass::Init:0: RuntimeWarning: no dictionary for class TrigL2Bjet_p3 is available
TClass::Init:0: RuntimeWarning: no dictionary for class TrigMuonClusterFeatureContainer_p1 is available
TClass::Init:0: RuntimeWarning: no dictionary for class TrigMuonClusterFeature_p1 is available
TClass::Init:0: RuntimeWarning: no dictionary for class Trk::DetailedTrackTruthCollection_p2::Entry is available
TClass::Init:0: RuntimeWarning: no dictionary for class Trk::TrackTruthKey_p0 is available
TClass::Init:0: RuntimeWarning: no dictionary for class Trk::DetailedTrackTruth_p2 is available
TClass::Init:0: RuntimeWarning: no dictionary for class Trk::SubDetHitStatistics_p0 is available
TClass::Init:0: RuntimeWarning: no dictionary for class Trk::TruthTrajectory_p1 is available
TClass::Init:0: RuntimeWarning: no dictionary for class TrigPhoton_p3 is available
TClass::Init:0: RuntimeWarning: no dictionary for class TrigVertexCollection_p1 is available
TClass::Init:0: RuntimeWarning: no dictionary for class TrigVertex_p2 is available
TClass::Init:0: RuntimeWarning: no dictionary for class TrigInDetTrackFitPar_p3 is available
TClass::Init:0: RuntimeWarning: no dictionary for class TrigInDetTrackCollection_p1 is available
TClass::Init:0: RuntimeWarning: no dictionary for class TrigInDetTrack_p5 is available
TClass::Init:0: RuntimeWarning: no dictionary for class TrigL2BphysContainer_p1 is available
TClass::Init:0: RuntimeWarning: no dictionary for class TrigL2Bphys_p3 is available
TClass::Init:0: RuntimeWarning: no dictionary for class TrigCaloCluster_p3 is available
TClass::Init:0: RuntimeWarning: no dictionary for class TrigEFBphysContainer_p1 is available
TClass::Init:0: RuntimeWarning: no dictionary for class TrigEFBphys_p3 is available
TClass::Init:0: RuntimeWarning: no dictionary for class TrigPassBits_p1 is available
TClass::Init:0: RuntimeWarning: no dictionary for class SkimDecision_p1 is available
TClass::Init:0: RuntimeWarning: no dictionary for class Rec::TrackParticleTruthCollection_p1::Entry is available
TClass::Init:0: RuntimeWarning: no dictionary for class CosmicMuonCollection_p1 is available
TClass::Init:0: RuntimeWarning: no dictionary for class TrigTau_p3 is available
TClass::Init:0: RuntimeWarning: no dictionary for class MuonSpShower_p1 is available
TClass::Init:0: RuntimeWarning: no dictionary for class Rec::TrackParticleContainer_p2 is available
TClass::Init:0: RuntimeWarning: no dictionary for class Rec::TrackParticle_p3 is available
TClass::Init:0: RuntimeWarning: no dictionary for class Trk::TrackParameters_p2 is available
TClass::Init:0: RuntimeWarning: no dictionary for class Trk::TrackSummary_p2 is available
TClass::Init:0: RuntimeWarning: no dictionary for class EventBookkeeperCollection_p2 is available
TClass::Init:0: RuntimeWarning: no dictionary for class EventBookkeeper_p2 is available
RootCollection Info File /afs/cern.ch/atlas/maxidisk/d33/referencefiles/aod/AOD-18.0.0/AOD-18.0.0-full.pool.root opened
RootCollectionSchemaEditor Warning  Collection Description not found in file, reconstructing 
RootCollection Info Root collection opened, size = 10
DbSession Info     Open     DbSession    
Domain[ROOT_All] Info >   Access   DbDomain     READ      [ROOT_All] 
Domain[ROOT_All] Info ->  Access   DbDatabase   READ      [ROOT_All] 17ADA42B-AF90-A1A8-0221-A13F2867D2DE
Domain[ROOT_All] Info                           /afs/cern.ch/atlas/maxidisk/d33/referencefiles/aod/AOD-18.0.0/AOD-18.0.0-full.pool.root
RootDatabase.open Success /afs/cern.ch/atlas/maxidisk/d33/referencefiles/aod/AOD-18.0.0/AOD-18.0.0-full.pool.root File version:53407
/afs/cern.ch/atlas/maxidisk/d33/referencefiles/aod/AOD-18.0.0/AOD-18.0.0-full.pool.root Info Database being retired...
Domain[ROOT_All] Info ->  Deaccess DbDatabase   READ      [ROOT_All] 17ADA42B-AF90-A1A8-0221-A13F2867D2DE
Domain[ROOT_All] Info >   Deaccess DbDomain     READ      [ROOT_All] 
DbSession Info     Open     DbSession    
Domain[ROOT_All] Info >   Access   DbDomain     READ      [ROOT_All] 
Domain[ROOT_All] Info ->  Access   DbDatabase   READ      [ROOT_All] 48D7B5A4-1E0D-E011-B6D0-003048F0E778
Domain[ROOT_All] Info                           /afs/cern.ch/atlas/maxidisk/d33/referencefiles/aod/AOD-18.0.0/AOD-18.0.0-full.pool.root
RootDatabase.open Success /afs/cern.ch/atlas/maxidisk/d33/referencefiles/aod/AOD-18.0.0/AOD-18.0.0-full.pool.root File version:53407
PoolSvc              INFO Failed to find container MetaDataHdrDataHeader to get Token.
EventPersistenc...   INFO Added successfully Conversion service:AthenaPoolCnvSvc
AthenaPoolAddre...   INFO Initializing AthenaPoolAddressProviderSvc - package version EventSelectorAthenaPool-00-19-16
ProxyProviderSvc     INFO Initializing ProxyProviderSvc - package version SGComps-00-02-10
HistogramPersis...WARNING Histograms saving not required.
AthenaEventLoopMgr   INFO Setup EventSelector service EventSelector
ActiveStoreSvc       INFO Initializing ActiveStoreSvc - package version StoreGate-03-07-06
ApplicationMgr       INFO Application Manager Initialized successfully
RootCollection Info Closing open collection '/afs/cern.ch/atlas/maxidisk/d33/referencefiles/aod/AOD-18.0.0/AOD-18.0.0-full.pool.root'
RootCollection Info Opening Collection File /afs/cern.ch/atlas/maxidisk/d33/referencefiles/aod/AOD-18.0.0/AOD-18.0.0-full.pool.root in mode: READ
RootCollection Info File /afs/cern.ch/atlas/maxidisk/d33/referencefiles/aod/AOD-18.0.0/AOD-18.0.0-full.pool.root opened
RootCollectionSchemaEditor Warning  Collection Description not found in file, reconstructing 
RootCollection Info Root collection opened, size = 10
ApplicationMgr       INFO Application Manager Started successfully
PoolSvc              INFO Failed to find container MetaDataHdrDataHeader to get Token.
AthenaEventLoopMgr   INFO   ===>>>  start of run 105200    <<<===
AthenaEventLoopMgr   INFO   ===>>>  start processing event #1, run #105200 0 events processed so far  <<<===
ClassIDSvc           INFO  getRegistryEntries: read 2234 CLIDRegistry entries for module ALL
ClassIDSvc           INFO  getRegistryEntries: read 5 CLIDRegistry entries for module ALL
AthenaEventLoopMgr   INFO   ===>>>  done processing event #1, run #105200 1 events processed so far  <<<===
AthenaEventLoopMgr   INFO   ===>>>  start processing event #2, run #105200 1 events processed so far  <<<===
AthenaEventLoopMgr   INFO   ===>>>  done processing event #2, run #105200 2 events processed so far  <<<===
AthenaEventLoopMgr   INFO   ===>>>  start processing event #3, run #105200 2 events processed so far  <<<===
AthenaEventLoopMgr   INFO   ===>>>  done processing event #3, run #105200 3 events processed so far  <<<===
AthenaEventLoopMgr   INFO   ===>>>  start processing event #4, run #105200 3 events processed so far  <<<===
AthenaEventLoopMgr   INFO   ===>>>  done processing event #4, run #105200 4 events processed so far  <<<===
AthenaEventLoopMgr   INFO   ===>>>  start processing event #5, run #105200 4 events processed so far  <<<===
AthenaEventLoopMgr   INFO   ===>>>  done processing event #5, run #105200 5 events processed so far  <<<===
AthenaEventLoopMgr   INFO   ===>>>  start processing event #6, run #105200 5 events processed so far  <<<===
AthenaEventLoopMgr   INFO   ===>>>  done processing event #6, run #105200 6 events processed so far  <<<===
AthenaEventLoopMgr   INFO   ===>>>  start processing event #7, run #105200 6 events processed so far  <<<===
AthenaEventLoopMgr   INFO   ===>>>  done processing event #7, run #105200 7 events processed so far  <<<===
AthenaEventLoopMgr   INFO   ===>>>  start processing event #8, run #105200 7 events processed so far  <<<===
AthenaEventLoopMgr   INFO   ===>>>  done processing event #8, run #105200 8 events processed so far  <<<===
AthenaEventLoopMgr   INFO   ===>>>  start processing event #9, run #105200 8 events processed so far  <<<===
AthenaEventLoopMgr   INFO   ===>>>  done processing event #9, run #105200 9 events processed so far  <<<===
AthenaEventLoopMgr   INFO   ===>>>  start processing event #10, run #105200 9 events processed so far  <<<===
AthenaEventLoopMgr   INFO   ===>>>  done processing event #10, run #105200 10 events processed so far  <<<===
RootCollection Info Closing open collection '/afs/cern.ch/atlas/maxidisk/d33/referencefiles/aod/AOD-18.0.0/AOD-18.0.0-full.pool.root'
/afs/cern.ch/atlas/maxidisk/d33/referencefiles/aod/AOD-18.0.0/AOD-18.0.0-full.pool.root Info Database being retired...
Domain[ROOT_All] Info ->  Deaccess DbDatabase   READ      [ROOT_All] 48D7B5A4-1E0D-E011-B6D0-003048F0E778
Domain[ROOT_All] Info >   Deaccess DbDomain     READ      [ROOT_All] 
AthenaEventLoopMgr   INFO No more events in event selection 
ApplicationMgr       INFO Application Manager Stopped successfully
dumper               INFO Finalizing dumper...
AthAlgSeq            INFO Finalizing AthAlgSeq...
AthOutSeq            INFO Finalizing AthOutSeq...
AthRegSeq            INFO Finalizing AthRegSeq...
AthMasterSeq         INFO Finalizing AthMasterSeq...
XMLFileCatalog Info Updating the catalog
PoolXMLFileCatalog Info XercesC termination number 0
PoolSvc              INFO I/O finalization...
PyComponentMgr       INFO Finalizing PyComponentMgr...
AthDictLoaderSvc     INFO in finalize...
ToolSvc              INFO Removing all tools created by ToolSvc
*****Chrono*****     INFO ****************************************************************************************************
*****Chrono*****     INFO  The Final CPU consumption ( Chrono ) Table (ordered)
*****Chrono*****     INFO ****************************************************************************************************
AthenaSealSvc::...   INFO Time User   : Tot=   19 [ms]                                             #=  1
ChronoStatSvc        INFO Time User   : Tot= 8.55  [s]                                             #=  1
*****Chrono*****     INFO ****************************************************************************************************
ChronoStatSvc.f...   INFO  Service finalized successfully 
ApplicationMgr       INFO Application Manager Finalized successfully
ApplicationMgr       INFO Application Manager Terminated successfully
Py:Athena            INFO leaving with code 0: "successful run"
CORAL/Services/ConnectionService Info Deleting the ConnectionPool
